<svg width="80" height="80" viewBox="0 0 80 80" fill="none" xmlns="http://www.w3.org/2000/svg">
<path d="M61.4176 65.4194C61.7078 65.1855 61.8939 64.8274 61.8939 64.4255C61.8939 64.4143 61.8939 6.38298 61.8939 6.38298C61.8939 5.67779 61.3224 5.10638 60.6173 5.10638H23.6836C22.7728 2.15268 20.0179 0 16.7694 0C13.5732 0 10.7764 2.13004 9.85641 5.10638H5.76585C5.06066 5.10638 4.48926 5.67779 4.48926 6.38298V78.7234C4.48926 79.4286 5.06066 80 5.76585 80H46.3083C46.7211 80 47.0789 79.8141 47.3129 79.5244L61.4176 65.4194ZM47.596 75.6303V65.7021H57.524L47.596 75.6303ZM16.7694 2.55319C18.5844 2.55319 20.1604 3.59234 20.9366 5.10638H12.6019C13.3856 3.58332 14.9807 2.55319 16.7694 2.55319ZM7.04245 7.65957H21.4503V16.5957C21.4503 17.769 20.4959 18.7234 19.3226 18.7234C18.1493 18.7234 17.195 17.769 17.195 16.5957V11.4894C17.195 10.7842 16.6236 10.2128 15.9184 10.2128C15.2132 10.2128 14.6418 10.7842 14.6418 11.4894V16.5957C14.6418 19.1767 16.7417 21.2766 19.3226 21.2766C21.9036 21.2766 24.0035 19.1767 24.0035 16.5957V7.65957H59.3407V63.1489H46.3194C45.6142 63.1489 45.0428 63.7203 45.0428 64.4255V77.4468H7.04245V7.65957Z" fill="#180B56"/>
<path d="M50.4046 58.8086C51.1098 58.8086 51.6812 58.2372 51.6812 57.532C51.6812 56.8268 51.1098 56.2554 50.4046 56.2554H15.9787C15.2736 56.2554 14.7021 56.8268 14.7021 57.532C14.7021 58.2372 15.2736 58.8086 15.9787 58.8086H50.4046Z" fill="#180B56"/>
<path d="M15.9787 51.1489H50.4046C51.1098 51.1489 51.6812 50.5775 51.6812 49.8723C51.6812 49.1671 51.1098 48.5957 50.4046 48.5957H15.9787C15.2736 48.5957 14.7021 49.1671 14.7021 49.8723C14.7021 50.5775 15.2736 51.1489 15.9787 51.1489Z" fill="#180B56"/>
<path d="M15.9787 43.4893H50.4046C51.1098 43.4893 51.6812 42.9179 51.6812 42.2128C51.6812 41.5076 51.1098 40.9362 50.4046 40.9362H15.9787C15.2736 40.9362 14.7021 41.5076 14.7021 42.2128C14.7021 42.9179 15.2736 43.4893 15.9787 43.4893Z" fill="#180B56"/>
<path d="M15.9787 35.8298H50.4046C51.1098 35.8298 51.6812 35.2584 51.6812 34.5532C51.6812 33.848 51.1098 33.2766 50.4046 33.2766H15.9787C15.2736 33.2766 14.7021 33.848 14.7021 34.5532C14.7021 35.2584 15.2736 35.8298 15.9787 35.8298Z" fill="#180B56"/>
<path d="M15.9787 28.1703H50.4046C51.1098 28.1703 51.6812 27.5989 51.6812 26.8937C51.6812 26.1885 51.1098 25.6171 50.4046 25.6171H15.9787C15.2736 25.6171 14.7021 26.1885 14.7021 26.8937C14.7021 27.5989 15.2736 28.1703 15.9787 28.1703Z" fill="#180B56"/>
<path d="M67.4256 5.10632H65.7235C65.0183 5.10632 64.4469 5.67773 64.4469 6.38292C64.4469 7.08811 65.0183 7.65951 65.7235 7.65951H66.149V77.4467H52.5198C51.8146 77.4467 51.2432 78.0182 51.2432 78.7233C51.2432 79.4285 51.8146 79.9999 52.5198 79.9999H67.4256C68.1308 79.9999 68.7022 79.4285 68.7022 78.7233V6.38292C68.7022 5.67773 68.1308 5.10632 67.4256 5.10632Z" fill="#180B56"/>
<path d="M74.2341 5.10632H72.532C71.8268 5.10632 71.2554 5.67773 71.2554 6.38292C71.2554 7.08811 71.8268 7.65951 72.532 7.65951H72.9575V77.4467H72.532C71.8268 77.4467 71.2554 78.0182 71.2554 78.7233C71.2554 79.4285 71.8268 79.9999 72.532 79.9999H74.2341C74.9393 79.9999 75.5107 79.4285 75.5107 78.7233V6.38292C75.5107 5.67773 74.9393 5.10632 74.2341 5.10632Z" fill="#180B56"/>
</svg>
